ISO-10303-21;
HEADER;
/* Generated by software containing ST-Developer
 * from STEP Tools, Inc. (www.steptools.com) 
 */

FILE_DESCRIPTION(
/* description */ (''),
/* implementation_level */ '2;1');

FILE_NAME(
/* name */ 
'D:/Development/3dprint/VictorsTests/Before20200923/LaserDiodeMount/La
serHeader_Horiozntal_Inflate v5.step',
/* time_stamp */ '2020-09-23T22:09:14-04:00',
/* author */ (''),
/* organization */ (''),
/* preprocessor_version */ 'ST-DEVELOPER v18.1',
/* originating_system */ 'Autodesk Translation Framework v9.3.0.1241',
/* authorisation */ '');

FILE_SCHEMA (('AUTOMOTIVE_DESIGN { 1 0 10303 214 3 1 1 }'));
ENDSEC;

DATA;
#10=MECHANICAL_DESIGN_GEOMETRIC_PRESENTATION_REPRESENTATION('',(#13),#1119);
#11=SHAPE_REPRESENTATION_RELATIONSHIP('SRR','None',#1126,#12);
#12=ADVANCED_BREP_SHAPE_REPRESENTATION('',(#14),#1118);
#13=STYLED_ITEM('',(#1135),#14);
#14=MANIFOLD_SOLID_BREP('Body1',#663);
#15=FACE_BOUND('',#99,.T.);
#16=FACE_BOUND('',#110,.T.);
#17=FACE_BOUND('',#111,.T.);
#18=FACE_BOUND('',#114,.T.);
#19=FACE_BOUND('',#115,.T.);
#20=FACE_BOUND('',#116,.T.);
#21=FACE_BOUND('',#117,.T.);
#22=FACE_BOUND('',#120,.T.);
#23=FACE_BOUND('',#121,.T.);
#24=FACE_BOUND('',#125,.T.);
#25=PLANE('',#689);
#26=PLANE('',#692);
#27=PLANE('',#698);
#28=PLANE('',#703);
#29=PLANE('',#705);
#30=PLANE('',#709);
#31=PLANE('',#713);
#32=PLANE('',#714);
#33=PLANE('',#717);
#34=PLANE('',#721);
#35=PLANE('',#722);
#36=PLANE('',#723);
#37=PLANE('',#726);
#38=PLANE('',#727);
#39=PLANE('',#728);
#40=PLANE('',#729);
#41=PLANE('',#730);
#42=PLANE('',#731);
#43=PLANE('',#732);
#44=PLANE('',#733);
#45=PLANE('',#734);
#46=PLANE('',#735);
#47=PLANE('',#738);
#48=FACE_OUTER_BOUND('',#82,.T.);
#49=FACE_OUTER_BOUND('',#83,.T.);
#50=FACE_OUTER_BOUND('',#84,.T.);
#51=FACE_OUTER_BOUND('',#85,.T.);
#52=FACE_OUTER_BOUND('',#86,.T.);
#53=FACE_OUTER_BOUND('',#87,.T.);
#54=FACE_OUTER_BOUND('',#88,.T.);
#55=FACE_OUTER_BOUND('',#89,.T.);
#56=FACE_OUTER_BOUND('',#90,.T.);
#57=FACE_OUTER_BOUND('',#91,.T.);
#58=FACE_OUTER_BOUND('',#92,.T.);
#59=FACE_OUTER_BOUND('',#93,.T.);
#60=FACE_OUTER_BOUND('',#94,.T.);
#61=FACE_OUTER_BOUND('',#95,.T.);
#62=FACE_OUTER_BOUND('',#96,.T.);
#63=FACE_OUTER_BOUND('',#97,.T.);
#64=FACE_OUTER_BOUND('',#98,.T.);
#65=FACE_OUTER_BOUND('',#100,.T.);
#66=FACE_OUTER_BOUND('',#101,.T.);
#67=FACE_OUTER_BOUND('',#102,.T.);
#68=FACE_OUTER_BOUND('',#103,.T.);
#69=FACE_OUTER_BOUND('',#104,.T.);
#70=FACE_OUTER_BOUND('',#105,.T.);
#71=FACE_OUTER_BOUND('',#106,.T.);
#72=FACE_OUTER_BOUND('',#107,.T.);
#73=FACE_OUTER_BOUND('',#108,.T.);
#74=FACE_OUTER_BOUND('',#109,.T.);
#75=FACE_OUTER_BOUND('',#112,.T.);
#76=FACE_OUTER_BOUND('',#113,.T.);
#77=FACE_OUTER_BOUND('',#118,.T.);
#78=FACE_OUTER_BOUND('',#119,.T.);
#79=FACE_OUTER_BOUND('',#122,.T.);
#80=FACE_OUTER_BOUND('',#123,.T.);
#81=FACE_OUTER_BOUND('',#124,.T.);
#82=EDGE_LOOP('',(#434,#435,#436,#437));
#83=EDGE_LOOP('',(#438,#439,#440,#441));
#84=EDGE_LOOP('',(#442,#443,#444,#445));
#85=EDGE_LOOP('',(#446,#447,#448,#449));
#86=EDGE_LOOP('',(#450,#451,#452));
#87=EDGE_LOOP('',(#453,#454,#455,#456));
#88=EDGE_LOOP('',(#457,#458,#459,#460,#461,#462));
#89=EDGE_LOOP('',(#463,#464,#465,#466));
#90=EDGE_LOOP('',(#467,#468,#469,#470,#471,#472));
#91=EDGE_LOOP('',(#473,#474,#475));
#92=EDGE_LOOP('',(#476,#477,#478,#479));
#93=EDGE_LOOP('',(#480,#481,#482,#483));
#94=EDGE_LOOP('',(#484,#485,#486,#487));
#95=EDGE_LOOP('',(#488,#489,#490,#491));
#96=EDGE_LOOP('',(#492,#493,#494,#495,#496,#497));
#97=EDGE_LOOP('',(#498,#499,#500,#501,#502,#503,#504,#505,#506,#507,#508,
#509));
#98=EDGE_LOOP('',(#510,#511,#512,#513,#514,#515,#516,#517));
#99=EDGE_LOOP('',(#518,#519,#520,#521,#522,#523,#524,#525));
#100=EDGE_LOOP('',(#526,#527,#528,#529,#530));
#101=EDGE_LOOP('',(#531,#532,#533,#534));
#102=EDGE_LOOP('',(#535,#536,#537,#538));
#103=EDGE_LOOP('',(#539,#540,#541,#542));
#104=EDGE_LOOP('',(#543,#544,#545,#546,#547));
#105=EDGE_LOOP('',(#548,#549,#550,#551,#552));
#106=EDGE_LOOP('',(#553,#554,#555,#556));
#107=EDGE_LOOP('',(#557,#558,#559,#560,#561));
#108=EDGE_LOOP('',(#562,#563,#564,#565));
#109=EDGE_LOOP('',(#566,#567,#568,#569));
#110=EDGE_LOOP('',(#570));
#111=EDGE_LOOP('',(#571));
#112=EDGE_LOOP('',(#572,#573,#574,#575));
#113=EDGE_LOOP('',(#576,#577,#578,#579));
#114=EDGE_LOOP('',(#580));
#115=EDGE_LOOP('',(#581));
#116=EDGE_LOOP('',(#582));
#117=EDGE_LOOP('',(#583));
#118=EDGE_LOOP('',(#584,#585,#586,#587));
#119=EDGE_LOOP('',(#588,#589,#590,#591));
#120=EDGE_LOOP('',(#592));
#121=EDGE_LOOP('',(#593));
#122=EDGE_LOOP('',(#594,#595,#596,#597));
#123=EDGE_LOOP('',(#598,#599,#600,#601));
#124=EDGE_LOOP('',(#602,#603,#604,#605,#606,#607,#608,#609));
#125=EDGE_LOOP('',(#610,#611,#612,#613,#614,#615,#616,#617));
#126=LINE('',#934,#190);
#127=LINE('',#940,#191);
#128=LINE('',#946,#192);
#129=LINE('',#952,#193);
#130=LINE('',#957,#194);
#131=LINE('',#964,#195);
#132=LINE('',#966,#196);
#133=LINE('',#968,#197);
#134=LINE('',#969,#198);
#135=LINE('',#979,#199);
#136=LINE('',#982,#200);
#137=LINE('',#984,#201);
#138=LINE('',#985,#202);
#139=LINE('',#992,#203);
#140=LINE('',#996,#204);
#141=LINE('',#999,#205);
#142=LINE('',#1001,#206);
#143=LINE('',#1002,#207);
#144=LINE('',#1008,#208);
#145=LINE('',#1011,#209);
#146=LINE('',#1013,#210);
#147=LINE('',#1014,#211);
#148=LINE('',#1020,#212);
#149=LINE('',#1022,#213);
#150=LINE('',#1023,#214);
#151=LINE('',#1028,#215);
#152=LINE('',#1030,#216);
#153=LINE('',#1032,#217);
#154=LINE('',#1039,#218);
#155=LINE('',#1041,#219);
#156=LINE('',#1043,#220);
#157=LINE('',#1045,#221);
#158=LINE('',#1047,#222);
#159=LINE('',#1049,#223);
#160=LINE('',#1050,#224);
#161=LINE('',#1053,#225);
#162=LINE('',#1056,#226);
#163=LINE('',#1059,#227);
#164=LINE('',#1060,#228);
#165=LINE('',#1063,#229);
#166=LINE('',#1064,#230);
#167=LINE('',#1067,#231);
#168=LINE('',#1068,#232);
#169=LINE('',#1072,#233);
#170=LINE('',#1075,#234);
#171=LINE('',#1076,#235);
#172=LINE('',#1079,#236);
#173=LINE('',#1080,#237);
#174=LINE('',#1082,#238);
#175=LINE('',#1085,#239);
#176=LINE('',#1087,#240);
#177=LINE('',#1088,#241);
#178=LINE('',#1091,#242);
#179=LINE('',#1092,#243);
#180=LINE('',#1095,#244);
#181=LINE('',#1096,#245);
#182=LINE('',#1099,#246);
#183=LINE('',#1100,#247);
#184=LINE('',#1103,#248);
#185=LINE('',#1104,#249);
#186=LINE('',#1107,#250);
#187=LINE('',#1108,#251);
#188=LINE('',#1111,#252);
#189=LINE('',#1112,#253);
#190=VECTOR('',#745,1.75);
#191=VECTOR('',#752,1.75);
#192=VECTOR('',#759,1.75);
#193=VECTOR('',#766,1.75);
#194=VECTOR('',#771,10.);
#195=VECTOR('',#778,10.);
#196=VECTOR('',#779,10.);
#197=VECTOR('',#780,10.);
#198=VECTOR('',#781,10.);
#199=VECTOR('',#792,10.);
#200=VECTOR('',#795,10.);
#201=VECTOR('',#796,10.);
#202=VECTOR('',#797,10.);
#203=VECTOR('',#806,10.);
#204=VECTOR('',#811,10.);
#205=VECTOR('',#814,10.);
#206=VECTOR('',#815,10.);
#207=VECTOR('',#816,10.);
#208=VECTOR('',#823,10.);
#209=VECTOR('',#826,10.);
#210=VECTOR('',#827,10.);
#211=VECTOR('',#828,10.);
#212=VECTOR('',#837,10.);
#213=VECTOR('',#838,10.);
#214=VECTOR('',#839,10.);
#215=VECTOR('',#844,10.);
#216=VECTOR('',#845,10.);
#217=VECTOR('',#846,10.);
#218=VECTOR('',#853,10.);
#219=VECTOR('',#854,10.);
#220=VECTOR('',#855,10.);
#221=VECTOR('',#856,10.);
#222=VECTOR('',#857,10.);
#223=VECTOR('',#858,10.);
#224=VECTOR('',#859,10.);
#225=VECTOR('',#862,10.);
#226=VECTOR('',#865,10.);
#227=VECTOR('',#868,10.);
#228=VECTOR('',#869,10.);
#229=VECTOR('',#872,10.);
#230=VECTOR('',#873,10.);
#231=VECTOR('',#876,10.);
#232=VECTOR('',#877,10.);
#233=VECTOR('',#882,10.);
#234=VECTOR('',#885,10.);
#235=VECTOR('',#886,10.);
#236=VECTOR('',#889,10.);
#237=VECTOR('',#890,10.);
#238=VECTOR('',#893,10.);
#239=VECTOR('',#896,10.);
#240=VECTOR('',#897,10.);
#241=VECTOR('',#898,10.);
#242=VECTOR('',#901,10.);
#243=VECTOR('',#902,10.);
#244=VECTOR('',#905,10.);
#245=VECTOR('',#906,10.);
#246=VECTOR('',#909,10.);
#247=VECTOR('',#910,10.);
#248=VECTOR('',#913,10.);
#249=VECTOR('',#914,10.);
#250=VECTOR('',#917,10.);
#251=VECTOR('',#918,10.);
#252=VECTOR('',#921,10.);
#253=VECTOR('',#922,10.);
#254=CIRCLE('',#678,1.75);
#255=CIRCLE('',#679,1.75);
#256=CIRCLE('',#681,1.75);
#257=CIRCLE('',#682,1.75);
#258=CIRCLE('',#684,1.75);
#259=CIRCLE('',#685,1.75);
#260=CIRCLE('',#687,1.75);
#261=CIRCLE('',#688,1.75);
#262=CIRCLE('',#690,3.25);
#263=CIRCLE('',#691,0.5);
#264=CIRCLE('',#694,0.499999999999999);
#265=CIRCLE('',#695,0.499999999999999);
#266=CIRCLE('',#696,0.499999999999999);
#267=CIRCLE('',#697,0.499999999999999);
#268=CIRCLE('',#700,0.5);
#269=CIRCLE('',#701,0.5);
#270=CIRCLE('',#702,0.5);
#271=CIRCLE('',#704,3.25);
#272=CIRCLE('',#707,0.5);
#273=CIRCLE('',#708,0.5);
#274=CIRCLE('',#711,0.5);
#275=CIRCLE('',#712,0.5);
#276=CIRCLE('',#715,3.25);
#277=CIRCLE('',#716,3.25);
#278=CIRCLE('',#718,7.5);
#279=CIRCLE('',#720,3.25);
#280=CIRCLE('',#725,3.25);
#281=CIRCLE('',#737,7.5);
#282=VERTEX_POINT('',#931);
#283=VERTEX_POINT('',#933);
#284=VERTEX_POINT('',#937);
#285=VERTEX_POINT('',#939);
#286=VERTEX_POINT('',#943);
#287=VERTEX_POINT('',#945);
#288=VERTEX_POINT('',#949);
#289=VERTEX_POINT('',#951);
#290=VERTEX_POINT('',#955);
#291=VERTEX_POINT('',#956);
#292=VERTEX_POINT('',#958);
#293=VERTEX_POINT('',#962);
#294=VERTEX_POINT('',#963);
#295=VERTEX_POINT('',#965);
#296=VERTEX_POINT('',#967);
#297=VERTEX_POINT('',#971);
#298=VERTEX_POINT('',#973);
#299=VERTEX_POINT('',#975);
#300=VERTEX_POINT('',#977);
#301=VERTEX_POINT('',#981);
#302=VERTEX_POINT('',#983);
#303=VERTEX_POINT('',#987);
#304=VERTEX_POINT('',#990);
#305=VERTEX_POINT('',#994);
#306=VERTEX_POINT('',#998);
#307=VERTEX_POINT('',#1000);
#308=VERTEX_POINT('',#1004);
#309=VERTEX_POINT('',#1006);
#310=VERTEX_POINT('',#1010);
#311=VERTEX_POINT('',#1012);
#312=VERTEX_POINT('',#1019);
#313=VERTEX_POINT('',#1021);
#314=VERTEX_POINT('',#1025);
#315=VERTEX_POINT('',#1027);
#316=VERTEX_POINT('',#1029);
#317=VERTEX_POINT('',#1031);
#318=VERTEX_POINT('',#1035);
#319=VERTEX_POINT('',#1036);
#320=VERTEX_POINT('',#1038);
#321=VERTEX_POINT('',#1040);
#322=VERTEX_POINT('',#1042);
#323=VERTEX_POINT('',#1044);
#324=VERTEX_POINT('',#1046);
#325=VERTEX_POINT('',#1048);
#326=VERTEX_POINT('',#1052);
#327=VERTEX_POINT('',#1054);
#328=VERTEX_POINT('',#1058);
#329=VERTEX_POINT('',#1062);
#330=VERTEX_POINT('',#1066);
#331=VERTEX_POINT('',#1070);
#332=VERTEX_POINT('',#1074);
#333=VERTEX_POINT('',#1078);
#334=VERTEX_POINT('',#1084);
#335=VERTEX_POINT('',#1086);
#336=VERTEX_POINT('',#1090);
#337=VERTEX_POINT('',#1094);
#338=VERTEX_POINT('',#1098);
#339=VERTEX_POINT('',#1102);
#340=VERTEX_POINT('',#1106);
#341=VERTEX_POINT('',#1110);
#342=EDGE_CURVE('',#282,#282,#254,.T.);
#343=EDGE_CURVE('',#282,#283,#126,.T.);
#344=EDGE_CURVE('',#283,#283,#255,.T.);
#345=EDGE_CURVE('',#284,#284,#256,.T.);
#346=EDGE_CURVE('',#284,#285,#127,.T.);
#347=EDGE_CURVE('',#285,#285,#257,.T.);
#348=EDGE_CURVE('',#286,#286,#258,.T.);
#349=EDGE_CURVE('',#286,#287,#128,.T.);
#350=EDGE_CURVE('',#287,#287,#259,.T.);
#351=EDGE_CURVE('',#288,#288,#260,.T.);
#352=EDGE_CURVE('',#288,#289,#129,.T.);
#353=EDGE_CURVE('',#289,#289,#261,.T.);
#354=EDGE_CURVE('',#290,#291,#130,.T.);
#355=EDGE_CURVE('',#292,#290,#262,.T.);
#356=EDGE_CURVE('',#292,#291,#263,.T.);
#357=EDGE_CURVE('',#293,#294,#131,.T.);
#358=EDGE_CURVE('',#295,#293,#132,.T.);
#359=EDGE_CURVE('',#296,#295,#133,.T.);
#360=EDGE_CURVE('',#296,#294,#134,.T.);
#361=EDGE_CURVE('',#294,#297,#264,.T.);
#362=EDGE_CURVE('',#298,#296,#265,.T.);
#363=EDGE_CURVE('',#299,#298,#266,.T.);
#364=EDGE_CURVE('',#300,#299,#267,.T.);
#365=EDGE_CURVE('',#300,#297,#135,.T.);
#366=EDGE_CURVE('',#297,#301,#136,.T.);
#367=EDGE_CURVE('',#302,#300,#137,.T.);
#368=EDGE_CURVE('',#302,#301,#138,.T.);
#369=EDGE_CURVE('',#301,#303,#268,.T.);
#370=EDGE_CURVE('',#291,#302,#269,.T.);
#371=EDGE_CURVE('',#304,#292,#270,.T.);
#372=EDGE_CURVE('',#304,#303,#139,.T.);
#373=EDGE_CURVE('',#305,#298,#271,.T.);
#374=EDGE_CURVE('',#299,#305,#140,.T.);
#375=EDGE_CURVE('',#303,#306,#141,.T.);
#376=EDGE_CURVE('',#307,#304,#142,.T.);
#377=EDGE_CURVE('',#307,#306,#143,.T.);
#378=EDGE_CURVE('',#306,#308,#272,.T.);
#379=EDGE_CURVE('',#309,#307,#273,.T.);
#380=EDGE_CURVE('',#309,#308,#144,.T.);
#381=EDGE_CURVE('',#308,#310,#145,.T.);
#382=EDGE_CURVE('',#311,#309,#146,.T.);
#383=EDGE_CURVE('',#311,#310,#147,.T.);
#384=EDGE_CURVE('',#310,#293,#274,.T.);
#385=EDGE_CURVE('',#295,#311,#275,.T.);
#386=EDGE_CURVE('',#312,#299,#148,.T.);
#387=EDGE_CURVE('',#313,#312,#149,.T.);
#388=EDGE_CURVE('',#291,#313,#150,.T.);
#389=EDGE_CURVE('',#314,#292,#276,.T.);
#390=EDGE_CURVE('',#315,#314,#151,.T.);
#391=EDGE_CURVE('',#316,#315,#152,.T.);
#392=EDGE_CURVE('',#317,#316,#153,.T.);
#393=EDGE_CURVE('',#298,#317,#277,.T.);
#394=EDGE_CURVE('',#318,#319,#278,.T.);
#395=EDGE_CURVE('',#319,#320,#154,.T.);
#396=EDGE_CURVE('',#320,#321,#155,.T.);
#397=EDGE_CURVE('',#321,#322,#156,.T.);
#398=EDGE_CURVE('',#322,#323,#157,.T.);
#399=EDGE_CURVE('',#323,#324,#158,.T.);
#400=EDGE_CURVE('',#324,#325,#159,.T.);
#401=EDGE_CURVE('',#325,#318,#160,.T.);
#402=EDGE_CURVE('',#290,#326,#161,.T.);
#403=EDGE_CURVE('',#327,#326,#279,.T.);
#404=EDGE_CURVE('',#314,#327,#162,.T.);
#405=EDGE_CURVE('',#328,#327,#163,.T.);
#406=EDGE_CURVE('',#315,#328,#164,.T.);
#407=EDGE_CURVE('',#329,#328,#165,.T.);
#408=EDGE_CURVE('',#316,#329,#166,.T.);
#409=EDGE_CURVE('',#330,#329,#167,.T.);
#410=EDGE_CURVE('',#317,#330,#168,.T.);
#411=EDGE_CURVE('',#331,#330,#280,.T.);
#412=EDGE_CURVE('',#305,#331,#169,.T.);
#413=EDGE_CURVE('',#332,#331,#170,.T.);
#414=EDGE_CURVE('',#312,#332,#171,.T.);
#415=EDGE_CURVE('',#333,#332,#172,.T.);
#416=EDGE_CURVE('',#313,#333,#173,.T.);
#417=EDGE_CURVE('',#326,#333,#174,.T.);
#418=EDGE_CURVE('',#334,#319,#175,.T.);
#419=EDGE_CURVE('',#335,#334,#176,.T.);
#420=EDGE_CURVE('',#320,#335,#177,.T.);
#421=EDGE_CURVE('',#336,#335,#178,.T.);
#422=EDGE_CURVE('',#321,#336,#179,.T.);
#423=EDGE_CURVE('',#337,#336,#180,.T.);
#424=EDGE_CURVE('',#322,#337,#181,.T.);
#425=EDGE_CURVE('',#338,#337,#182,.T.);
#426=EDGE_CURVE('',#323,#338,#183,.T.);
#427=EDGE_CURVE('',#339,#338,#184,.T.);
#428=EDGE_CURVE('',#324,#339,#185,.T.);
#429=EDGE_CURVE('',#340,#339,#186,.T.);
#430=EDGE_CURVE('',#325,#340,#187,.T.);
#431=EDGE_CURVE('',#341,#340,#188,.T.);
#432=EDGE_CURVE('',#318,#341,#189,.T.);
#433=EDGE_CURVE('',#334,#341,#281,.T.);
#434=ORIENTED_EDGE('',*,*,#342,.F.);
#435=ORIENTED_EDGE('',*,*,#343,.T.);
#436=ORIENTED_EDGE('',*,*,#344,.F.);
#437=ORIENTED_EDGE('',*,*,#343,.F.);
#438=ORIENTED_EDGE('',*,*,#345,.F.);
#439=ORIENTED_EDGE('',*,*,#346,.T.);
#440=ORIENTED_EDGE('',*,*,#347,.F.);
#441=ORIENTED_EDGE('',*,*,#346,.F.);
#442=ORIENTED_EDGE('',*,*,#348,.F.);
#443=ORIENTED_EDGE('',*,*,#349,.T.);
#444=ORIENTED_EDGE('',*,*,#350,.F.);
#445=ORIENTED_EDGE('',*,*,#349,.F.);
#446=ORIENTED_EDGE('',*,*,#351,.F.);
#447=ORIENTED_EDGE('',*,*,#352,.T.);
#448=ORIENTED_EDGE('',*,*,#353,.F.);
#449=ORIENTED_EDGE('',*,*,#352,.F.);
#450=ORIENTED_EDGE('',*,*,#354,.F.);
#451=ORIENTED_EDGE('',*,*,#355,.F.);
#452=ORIENTED_EDGE('',*,*,#356,.T.);
#453=ORIENTED_EDGE('',*,*,#357,.F.);
#454=ORIENTED_EDGE('',*,*,#358,.F.);
#455=ORIENTED_EDGE('',*,*,#359,.F.);
#456=ORIENTED_EDGE('',*,*,#360,.T.);
#457=ORIENTED_EDGE('',*,*,#361,.F.);
#458=ORIENTED_EDGE('',*,*,#360,.F.);
#459=ORIENTED_EDGE('',*,*,#362,.F.);
#460=ORIENTED_EDGE('',*,*,#363,.F.);
#461=ORIENTED_EDGE('',*,*,#364,.F.);
#462=ORIENTED_EDGE('',*,*,#365,.T.);
#463=ORIENTED_EDGE('',*,*,#366,.F.);
#464=ORIENTED_EDGE('',*,*,#365,.F.);
#465=ORIENTED_EDGE('',*,*,#367,.F.);
#466=ORIENTED_EDGE('',*,*,#368,.T.);
#467=ORIENTED_EDGE('',*,*,#369,.F.);
#468=ORIENTED_EDGE('',*,*,#368,.F.);
#469=ORIENTED_EDGE('',*,*,#370,.F.);
#470=ORIENTED_EDGE('',*,*,#356,.F.);
#471=ORIENTED_EDGE('',*,*,#371,.F.);
#472=ORIENTED_EDGE('',*,*,#372,.T.);
#473=ORIENTED_EDGE('',*,*,#373,.F.);
#474=ORIENTED_EDGE('',*,*,#374,.F.);
#475=ORIENTED_EDGE('',*,*,#363,.T.);
#476=ORIENTED_EDGE('',*,*,#375,.F.);
#477=ORIENTED_EDGE('',*,*,#372,.F.);
#478=ORIENTED_EDGE('',*,*,#376,.F.);
#479=ORIENTED_EDGE('',*,*,#377,.T.);
#480=ORIENTED_EDGE('',*,*,#378,.F.);
#481=ORIENTED_EDGE('',*,*,#377,.F.);
#482=ORIENTED_EDGE('',*,*,#379,.F.);
#483=ORIENTED_EDGE('',*,*,#380,.T.);
#484=ORIENTED_EDGE('',*,*,#381,.F.);
#485=ORIENTED_EDGE('',*,*,#380,.F.);
#486=ORIENTED_EDGE('',*,*,#382,.F.);
#487=ORIENTED_EDGE('',*,*,#383,.T.);
#488=ORIENTED_EDGE('',*,*,#384,.F.);
#489=ORIENTED_EDGE('',*,*,#383,.F.);
#490=ORIENTED_EDGE('',*,*,#385,.F.);
#491=ORIENTED_EDGE('',*,*,#358,.T.);
#492=ORIENTED_EDGE('',*,*,#364,.T.);
#493=ORIENTED_EDGE('',*,*,#386,.F.);
#494=ORIENTED_EDGE('',*,*,#387,.F.);
#495=ORIENTED_EDGE('',*,*,#388,.F.);
#496=ORIENTED_EDGE('',*,*,#370,.T.);
#497=ORIENTED_EDGE('',*,*,#367,.T.);
#498=ORIENTED_EDGE('',*,*,#362,.T.);
#499=ORIENTED_EDGE('',*,*,#359,.T.);
#500=ORIENTED_EDGE('',*,*,#385,.T.);
#501=ORIENTED_EDGE('',*,*,#382,.T.);
#502=ORIENTED_EDGE('',*,*,#379,.T.);
#503=ORIENTED_EDGE('',*,*,#376,.T.);
#504=ORIENTED_EDGE('',*,*,#371,.T.);
#505=ORIENTED_EDGE('',*,*,#389,.F.);
#506=ORIENTED_EDGE('',*,*,#390,.F.);
#507=ORIENTED_EDGE('',*,*,#391,.F.);
#508=ORIENTED_EDGE('',*,*,#392,.F.);
#509=ORIENTED_EDGE('',*,*,#393,.F.);
#510=ORIENTED_EDGE('',*,*,#394,.T.);
#511=ORIENTED_EDGE('',*,*,#395,.T.);
#512=ORIENTED_EDGE('',*,*,#396,.T.);
#513=ORIENTED_EDGE('',*,*,#397,.T.);
#514=ORIENTED_EDGE('',*,*,#398,.T.);
#515=ORIENTED_EDGE('',*,*,#399,.T.);
#516=ORIENTED_EDGE('',*,*,#400,.T.);
#517=ORIENTED_EDGE('',*,*,#401,.T.);
#518=ORIENTED_EDGE('',*,*,#357,.T.);
#519=ORIENTED_EDGE('',*,*,#361,.T.);
#520=ORIENTED_EDGE('',*,*,#366,.T.);
#521=ORIENTED_EDGE('',*,*,#369,.T.);
#522=ORIENTED_EDGE('',*,*,#375,.T.);
#523=ORIENTED_EDGE('',*,*,#378,.T.);
#524=ORIENTED_EDGE('',*,*,#381,.T.);
#525=ORIENTED_EDGE('',*,*,#384,.T.);
#526=ORIENTED_EDGE('',*,*,#389,.T.);
#527=ORIENTED_EDGE('',*,*,#355,.T.);
#528=ORIENTED_EDGE('',*,*,#402,.T.);
#529=ORIENTED_EDGE('',*,*,#403,.F.);
#530=ORIENTED_EDGE('',*,*,#404,.F.);
#531=ORIENTED_EDGE('',*,*,#390,.T.);
#532=ORIENTED_EDGE('',*,*,#404,.T.);
#533=ORIENTED_EDGE('',*,*,#405,.F.);
#534=ORIENTED_EDGE('',*,*,#406,.F.);
#535=ORIENTED_EDGE('',*,*,#391,.T.);
#536=ORIENTED_EDGE('',*,*,#406,.T.);
#537=ORIENTED_EDGE('',*,*,#407,.F.);
#538=ORIENTED_EDGE('',*,*,#408,.F.);
#539=ORIENTED_EDGE('',*,*,#392,.T.);
#540=ORIENTED_EDGE('',*,*,#408,.T.);
#541=ORIENTED_EDGE('',*,*,#409,.F.);
#542=ORIENTED_EDGE('',*,*,#410,.F.);
#543=ORIENTED_EDGE('',*,*,#373,.T.);
#544=ORIENTED_EDGE('',*,*,#393,.T.);
#545=ORIENTED_EDGE('',*,*,#410,.T.);
#546=ORIENTED_EDGE('',*,*,#411,.F.);
#547=ORIENTED_EDGE('',*,*,#412,.F.);
#548=ORIENTED_EDGE('',*,*,#386,.T.);
#549=ORIENTED_EDGE('',*,*,#374,.T.);
#550=ORIENTED_EDGE('',*,*,#412,.T.);
#551=ORIENTED_EDGE('',*,*,#413,.F.);
#552=ORIENTED_EDGE('',*,*,#414,.F.);
#553=ORIENTED_EDGE('',*,*,#387,.T.);
#554=ORIENTED_EDGE('',*,*,#414,.T.);
#555=ORIENTED_EDGE('',*,*,#415,.F.);
#556=ORIENTED_EDGE('',*,*,#416,.F.);
#557=ORIENTED_EDGE('',*,*,#354,.T.);
#558=ORIENTED_EDGE('',*,*,#388,.T.);
#559=ORIENTED_EDGE('',*,*,#416,.T.);
#560=ORIENTED_EDGE('',*,*,#417,.F.);
#561=ORIENTED_EDGE('',*,*,#402,.F.);
#562=ORIENTED_EDGE('',*,*,#418,.F.);
#563=ORIENTED_EDGE('',*,*,#419,.F.);
#564=ORIENTED_EDGE('',*,*,#420,.F.);
#565=ORIENTED_EDGE('',*,*,#395,.F.);
#566=ORIENTED_EDGE('',*,*,#420,.T.);
#567=ORIENTED_EDGE('',*,*,#421,.F.);
#568=ORIENTED_EDGE('',*,*,#422,.F.);
#569=ORIENTED_EDGE('',*,*,#396,.F.);
#570=ORIENTED_EDGE('',*,*,#342,.T.);
#571=ORIENTED_EDGE('',*,*,#348,.T.);
#572=ORIENTED_EDGE('',*,*,#422,.T.);
#573=ORIENTED_EDGE('',*,*,#423,.F.);
#574=ORIENTED_EDGE('',*,*,#424,.F.);
#575=ORIENTED_EDGE('',*,*,#397,.F.);
#576=ORIENTED_EDGE('',*,*,#424,.T.);
#577=ORIENTED_EDGE('',*,*,#425,.F.);
#578=ORIENTED_EDGE('',*,*,#426,.F.);
#579=ORIENTED_EDGE('',*,*,#398,.F.);
#580=ORIENTED_EDGE('',*,*,#344,.T.);
#581=ORIENTED_EDGE('',*,*,#347,.T.);
#582=ORIENTED_EDGE('',*,*,#350,.T.);
#583=ORIENTED_EDGE('',*,*,#353,.T.);
#584=ORIENTED_EDGE('',*,*,#426,.T.);
#585=ORIENTED_EDGE('',*,*,#427,.F.);
#586=ORIENTED_EDGE('',*,*,#428,.F.);
#587=ORIENTED_EDGE('',*,*,#399,.F.);
#588=ORIENTED_EDGE('',*,*,#428,.T.);
#589=ORIENTED_EDGE('',*,*,#429,.F.);
#590=ORIENTED_EDGE('',*,*,#430,.F.);
#591=ORIENTED_EDGE('',*,*,#400,.F.);
#592=ORIENTED_EDGE('',*,*,#345,.T.);
#593=ORIENTED_EDGE('',*,*,#351,.T.);
#594=ORIENTED_EDGE('',*,*,#430,.T.);
#595=ORIENTED_EDGE('',*,*,#431,.F.);
#596=ORIENTED_EDGE('',*,*,#432,.F.);
#597=ORIENTED_EDGE('',*,*,#401,.F.);
#598=ORIENTED_EDGE('',*,*,#432,.T.);
#599=ORIENTED_EDGE('',*,*,#433,.F.);
#600=ORIENTED_EDGE('',*,*,#418,.T.);
#601=ORIENTED_EDGE('',*,*,#394,.F.);
#602=ORIENTED_EDGE('',*,*,#433,.T.);
#603=ORIENTED_EDGE('',*,*,#431,.T.);
#604=ORIENTED_EDGE('',*,*,#429,.T.);
#605=ORIENTED_EDGE('',*,*,#427,.T.);
#606=ORIENTED_EDGE('',*,*,#425,.T.);
#607=ORIENTED_EDGE('',*,*,#423,.T.);
#608=ORIENTED_EDGE('',*,*,#421,.T.);
#609=ORIENTED_EDGE('',*,*,#419,.T.);
#610=ORIENTED_EDGE('',*,*,#417,.T.);
#611=ORIENTED_EDGE('',*,*,#415,.T.);
#612=ORIENTED_EDGE('',*,*,#413,.T.);
#613=ORIENTED_EDGE('',*,*,#411,.T.);
#614=ORIENTED_EDGE('',*,*,#409,.T.);
#615=ORIENTED_EDGE('',*,*,#407,.T.);
#616=ORIENTED_EDGE('',*,*,#405,.T.);
#617=ORIENTED_EDGE('',*,*,#403,.T.);
#618=CYLINDRICAL_SURFACE('',#677,1.75);
#619=CYLINDRICAL_SURFACE('',#680,1.75);
#620=CYLINDRICAL_SURFACE('',#683,1.75);
#621=CYLINDRICAL_SURFACE('',#686,1.75);
#622=CYLINDRICAL_SURFACE('',#693,0.499999999999999);
#623=CYLINDRICAL_SURFACE('',#699,0.5);
#624=CYLINDRICAL_SURFACE('',#706,0.5);
#625=CYLINDRICAL_SURFACE('',#710,0.5);
#626=CYLINDRICAL_SURFACE('',#719,3.25);
#627=CYLINDRICAL_SURFACE('',#724,3.25);
#628=CYLINDRICAL_SURFACE('',#736,7.5);
#629=ADVANCED_FACE('',(#48),#618,.F.);
#630=ADVANCED_FACE('',(#49),#619,.F.);
#631=ADVANCED_FACE('',(#50),#620,.F.);
#632=ADVANCED_FACE('',(#51),#621,.F.);
#633=ADVANCED_FACE('',(#52),#25,.F.);
#634=ADVANCED_FACE('',(#53),#26,.F.);
#635=ADVANCED_FACE('',(#54),#622,.F.);
#636=ADVANCED_FACE('',(#55),#27,.F.);
#637=ADVANCED_FACE('',(#56),#623,.F.);
#638=ADVANCED_FACE('',(#57),#28,.F.);
#639=ADVANCED_FACE('',(#58),#29,.F.);
#640=ADVANCED_FACE('',(#59),#624,.F.);
#641=ADVANCED_FACE('',(#60),#30,.F.);
#642=ADVANCED_FACE('',(#61),#625,.F.);
#643=ADVANCED_FACE('',(#62),#31,.T.);
#644=ADVANCED_FACE('',(#63),#32,.T.);
#645=ADVANCED_FACE('',(#64,#15),#33,.F.);
#646=ADVANCED_FACE('',(#65),#626,.F.);
#647=ADVANCED_FACE('',(#66),#34,.T.);
#648=ADVANCED_FACE('',(#67),#35,.T.);
#649=ADVANCED_FACE('',(#68),#36,.T.);
#650=ADVANCED_FACE('',(#69),#627,.F.);
#651=ADVANCED_FACE('',(#70),#37,.T.);
#652=ADVANCED_FACE('',(#71),#38,.T.);
#653=ADVANCED_FACE('',(#72),#39,.T.);
#654=ADVANCED_FACE('',(#73),#40,.T.);
#655=ADVANCED_FACE('',(#74,#16,#17),#41,.T.);
#656=ADVANCED_FACE('',(#75),#42,.T.);
#657=ADVANCED_FACE('',(#76,#18,#19,#20,#21),#43,.T.);
#658=ADVANCED_FACE('',(#77),#44,.T.);
#659=ADVANCED_FACE('',(#78,#22,#23),#45,.T.);
#660=ADVANCED_FACE('',(#79),#46,.T.);
#661=ADVANCED_FACE('',(#80),#628,.T.);
#662=ADVANCED_FACE('',(#81,#24),#47,.T.);
#663=CLOSED_SHELL('',(#629,#630,#631,#632,#633,#634,#635,#636,#637,#638,
#639,#640,#641,#642,#643,#644,#645,#646,#647,#648,#649,#650,#651,#652,#653,
#654,#655,#656,#657,#658,#659,#660,#661,#662));
#664=DERIVED_UNIT_ELEMENT(#666,1.);
#665=DERIVED_UNIT_ELEMENT(#1121,3.);
#666=(
MASS_UNIT()
NAMED_UNIT(*)
SI_UNIT(.KILO.,.GRAM.)
);
#667=DERIVED_UNIT((#664,#665));
#668=MEASURE_REPRESENTATION_ITEM('density measure',
POSITIVE_RATIO_MEASURE(7850.),#667);
#669=PROPERTY_DEFINITION_REPRESENTATION(#674,#671);
#670=PROPERTY_DEFINITION_REPRESENTATION(#675,#672);
#671=REPRESENTATION('material name',(#673),#1118);
#672=REPRESENTATION('density',(#668),#1118);
#673=DESCRIPTIVE_REPRESENTATION_ITEM('Steel','Steel');
#674=PROPERTY_DEFINITION('material property','material name',#1128);
#675=PROPERTY_DEFINITION('material property','density of part',#1128);
#676=AXIS2_PLACEMENT_3D('placement',#929,#739,#740);
#677=AXIS2_PLACEMENT_3D('',#930,#741,#742);
#678=AXIS2_PLACEMENT_3D('',#932,#743,#744);
#679=AXIS2_PLACEMENT_3D('',#935,#746,#747);
#680=AXIS2_PLACEMENT_3D('',#936,#748,#749);
#681=AXIS2_PLACEMENT_3D('',#938,#750,#751);
#682=AXIS2_PLACEMENT_3D('',#941,#753,#754);
#683=AXIS2_PLACEMENT_3D('',#942,#755,#756);
#684=AXIS2_PLACEMENT_3D('',#944,#757,#758);
#685=AXIS2_PLACEMENT_3D('',#947,#760,#761);
#686=AXIS2_PLACEMENT_3D('',#948,#762,#763);
#687=AXIS2_PLACEMENT_3D('',#950,#764,#765);
#688=AXIS2_PLACEMENT_3D('',#953,#767,#768);
#689=AXIS2_PLACEMENT_3D('',#954,#769,#770);
#690=AXIS2_PLACEMENT_3D('',#959,#772,#773);
#691=AXIS2_PLACEMENT_3D('',#960,#774,#775);
#692=AXIS2_PLACEMENT_3D('',#961,#776,#777);
#693=AXIS2_PLACEMENT_3D('',#970,#782,#783);
#694=AXIS2_PLACEMENT_3D('',#972,#784,#785);
#695=AXIS2_PLACEMENT_3D('',#974,#786,#787);
#696=AXIS2_PLACEMENT_3D('',#976,#788,#789);
#697=AXIS2_PLACEMENT_3D('',#978,#790,#791);
#698=AXIS2_PLACEMENT_3D('',#980,#793,#794);
#699=AXIS2_PLACEMENT_3D('',#986,#798,#799);
#700=AXIS2_PLACEMENT_3D('',#988,#800,#801);
#701=AXIS2_PLACEMENT_3D('',#989,#802,#803);
#702=AXIS2_PLACEMENT_3D('',#991,#804,#805);
#703=AXIS2_PLACEMENT_3D('',#993,#807,#808);
#704=AXIS2_PLACEMENT_3D('',#995,#809,#810);
#705=AXIS2_PLACEMENT_3D('',#997,#812,#813);
#706=AXIS2_PLACEMENT_3D('',#1003,#817,#818);
#707=AXIS2_PLACEMENT_3D('',#1005,#819,#820);
#708=AXIS2_PLACEMENT_3D('',#1007,#821,#822);
#709=AXIS2_PLACEMENT_3D('',#1009,#824,#825);
#710=AXIS2_PLACEMENT_3D('',#1015,#829,#830);
#711=AXIS2_PLACEMENT_3D('',#1016,#831,#832);
#712=AXIS2_PLACEMENT_3D('',#1017,#833,#834);
#713=AXIS2_PLACEMENT_3D('',#1018,#835,#836);
#714=AXIS2_PLACEMENT_3D('',#1024,#840,#841);
#715=AXIS2_PLACEMENT_3D('',#1026,#842,#843);
#716=AXIS2_PLACEMENT_3D('',#1033,#847,#848);
#717=AXIS2_PLACEMENT_3D('',#1034,#849,#850);
#718=AXIS2_PLACEMENT_3D('',#1037,#851,#852);
#719=AXIS2_PLACEMENT_3D('',#1051,#860,#861);
#720=AXIS2_PLACEMENT_3D('',#1055,#863,#864);
#721=AXIS2_PLACEMENT_3D('',#1057,#866,#867);
#722=AXIS2_PLACEMENT_3D('',#1061,#870,#871);
#723=AXIS2_PLACEMENT_3D('',#1065,#874,#875);
#724=AXIS2_PLACEMENT_3D('',#1069,#878,#879);
#725=AXIS2_PLACEMENT_3D('',#1071,#880,#881);
#726=AXIS2_PLACEMENT_3D('',#1073,#883,#884);
#727=AXIS2_PLACEMENT_3D('',#1077,#887,#888);
#728=AXIS2_PLACEMENT_3D('',#1081,#891,#892);
#729=AXIS2_PLACEMENT_3D('',#1083,#894,#895);
#730=AXIS2_PLACEMENT_3D('',#1089,#899,#900);
#731=AXIS2_PLACEMENT_3D('',#1093,#903,#904);
#732=AXIS2_PLACEMENT_3D('',#1097,#907,#908);
#733=AXIS2_PLACEMENT_3D('',#1101,#911,#912);
#734=AXIS2_PLACEMENT_3D('',#1105,#915,#916);
#735=AXIS2_PLACEMENT_3D('',#1109,#919,#920);
#736=AXIS2_PLACEMENT_3D('',#1113,#923,#924);
#737=AXIS2_PLACEMENT_3D('',#1114,#925,#926);
#738=AXIS2_PLACEMENT_3D('',#1115,#927,#928);
#739=DIRECTION('axis',(0.,0.,1.));
#740=DIRECTION('refdir',(1.,0.,0.));
#741=DIRECTION('center_axis',(6.72862439166757E-16,0.,1.));
#742=DIRECTION('ref_axis',(-1.,0.,6.72862439166757E-16));
#743=DIRECTION('center_axis',(-7.63278329429795E-16,0.,1.));
#744=DIRECTION('ref_axis',(-1.,0.,6.72862439166757E-16));
#745=DIRECTION('',(6.72862439166757E-16,0.,1.));
#746=DIRECTION('center_axis',(7.16272919113004E-17,0.,-1.));
#747=DIRECTION('ref_axis',(-1.,0.,6.72862439166757E-16));
#748=DIRECTION('center_axis',(6.72862439166757E-16,0.,1.));
#749=DIRECTION('ref_axis',(-1.,0.,6.72862439166757E-16));
#750=DIRECTION('center_axis',(7.63278329429795E-16,0.,1.));
#751=DIRECTION('ref_axis',(-1.,0.,6.72862439166757E-16));
#752=DIRECTION('',(6.72862439166757E-16,0.,1.));
#753=DIRECTION('center_axis',(7.16272919113004E-17,0.,-1.));
#754=DIRECTION('ref_axis',(-1.,0.,6.72862439166757E-16));
#755=DIRECTION('center_axis',(6.72862439166757E-16,0.,1.));
#756=DIRECTION('ref_axis',(-1.,0.,6.72862439166757E-16));
#757=DIRECTION('center_axis',(-7.63278329429795E-16,0.,1.));
#758=DIRECTION('ref_axis',(-1.,0.,6.72862439166757E-16));
#759=DIRECTION('',(6.72862439166757E-16,0.,1.));
#760=DIRECTION('center_axis',(7.16272919113004E-17,0.,-1.));
#761=DIRECTION('ref_axis',(-1.,0.,6.72862439166757E-16));
#762=DIRECTION('center_axis',(6.72862439166757E-16,0.,1.));
#763=DIRECTION('ref_axis',(-1.,0.,6.72862439166757E-16));
#764=DIRECTION('center_axis',(7.63278329429795E-16,0.,1.));
#765=DIRECTION('ref_axis',(-1.,0.,6.72862439166757E-16));
#766=DIRECTION('',(6.72862439166757E-16,0.,1.));
#767=DIRECTION('center_axis',(7.16272919113004E-17,0.,-1.));
#768=DIRECTION('ref_axis',(-1.,0.,6.72862439166757E-16));
#769=DIRECTION('center_axis',(0.,1.,0.));
#770=DIRECTION('ref_axis',(1.,0.,0.));
#771=DIRECTION('',(0.,0.,1.));
#772=DIRECTION('center_axis',(0.,-1.,0.));
#773=DIRECTION('ref_axis',(1.,0.,0.));
#774=DIRECTION('center_axis',(0.,-1.,0.));
#775=DIRECTION('ref_axis',(0.,0.,1.));
#776=DIRECTION('center_axis',(-1.,0.,0.));
#777=DIRECTION('ref_axis',(0.,0.,-1.));
#778=DIRECTION('',(0.,0.,1.));
#779=DIRECTION('',(0.,-1.,0.));
#780=DIRECTION('',(0.,0.,-1.));
#781=DIRECTION('',(0.,-1.,0.));
#782=DIRECTION('center_axis',(0.,-1.,0.));
#783=DIRECTION('ref_axis',(-1.,0.,-2.22044604925032E-15));
#784=DIRECTION('center_axis',(0.,1.,0.));
#785=DIRECTION('ref_axis',(-1.,0.,-2.22044604925032E-15));
#786=DIRECTION('center_axis',(0.,-1.,0.));
#787=DIRECTION('ref_axis',(-1.,0.,-2.22044604925032E-15));
#788=DIRECTION('center_axis',(0.,-1.,0.));
#789=DIRECTION('ref_axis',(-1.,0.,-2.22044604925032E-15));
#790=DIRECTION('center_axis',(0.,-1.,0.));
#791=DIRECTION('ref_axis',(-1.,0.,-2.22044604925032E-15));
#792=DIRECTION('',(0.,-1.,0.));
#793=DIRECTION('center_axis',(0.,0.,1.));
#794=DIRECTION('ref_axis',(-1.,0.,0.));
#795=DIRECTION('',(1.,0.,0.));
#796=DIRECTION('',(-1.,0.,0.));
#797=DIRECTION('',(0.,-1.,0.));
#798=DIRECTION('center_axis',(0.,-1.,0.));
#799=DIRECTION('ref_axis',(0.,0.,1.));
#800=DIRECTION('center_axis',(0.,1.,0.));
#801=DIRECTION('ref_axis',(0.,0.,1.));
#802=DIRECTION('center_axis',(0.,-1.,0.));
#803=DIRECTION('ref_axis',(0.,0.,1.));
#804=DIRECTION('center_axis',(0.,-1.,0.));
#805=DIRECTION('ref_axis',(0.,0.,1.));
#806=DIRECTION('',(0.,-1.,0.));
#807=DIRECTION('center_axis',(0.,1.,0.));
#808=DIRECTION('ref_axis',(1.,0.,0.));
#809=DIRECTION('center_axis',(0.,-1.,0.));
#810=DIRECTION('ref_axis',(1.,0.,0.));
#811=DIRECTION('',(0.,0.,-1.));
#812=DIRECTION('center_axis',(1.,0.,0.));
#813=DIRECTION('ref_axis',(0.,0.,1.));
#814=DIRECTION('',(0.,0.,-1.));
#815=DIRECTION('',(0.,0.,1.));
#816=DIRECTION('',(0.,-1.,0.));
#817=DIRECTION('center_axis',(0.,-1.,0.));
#818=DIRECTION('ref_axis',(1.,0.,-2.77555756156289E-16));
#819=DIRECTION('center_axis',(0.,1.,0.));
#820=DIRECTION('ref_axis',(1.,0.,-2.77555756156289E-16));
#821=DIRECTION('center_axis',(0.,-1.,0.));
#822=DIRECTION('ref_axis',(1.,0.,-2.77555756156289E-16));
#823=DIRECTION('',(0.,-1.,0.));
#824=DIRECTION('center_axis',(-3.46944695195361E-17,0.,-1.));
#825=DIRECTION('ref_axis',(1.,0.,-3.46944695195361E-17));
#826=DIRECTION('',(-1.,0.,3.46944695195361E-17));
#827=DIRECTION('',(1.,0.,-3.46944695195361E-17));
#828=DIRECTION('',(0.,-1.,0.));
#829=DIRECTION('center_axis',(0.,-1.,0.));
#830=DIRECTION('ref_axis',(5.55111512312578E-16,0.,-1.));
#831=DIRECTION('center_axis',(0.,1.,0.));
#832=DIRECTION('ref_axis',(5.55111512312578E-16,0.,-1.));
#833=DIRECTION('center_axis',(0.,-1.,0.));
#834=DIRECTION('ref_axis',(5.55111512312578E-16,0.,-1.));
#835=DIRECTION('center_axis',(0.,1.,0.));
#836=DIRECTION('ref_axis',(1.,0.,0.));
#837=DIRECTION('',(0.,0.,-1.));
#838=DIRECTION('',(-1.,0.,0.));
#839=DIRECTION('',(0.,0.,1.));
#840=DIRECTION('center_axis',(0.,1.,0.));
#841=DIRECTION('ref_axis',(1.,0.,0.));
#842=DIRECTION('center_axis',(0.,-1.,0.));
#843=DIRECTION('ref_axis',(1.,0.,0.));
#844=DIRECTION('',(0.,0.,1.));
#845=DIRECTION('',(1.,0.,0.));
#846=DIRECTION('',(0.,0.,-1.));
#847=DIRECTION('center_axis',(0.,-1.,0.));
#848=DIRECTION('ref_axis',(1.,0.,0.));
#849=DIRECTION('center_axis',(0.,1.,0.));
#850=DIRECTION('ref_axis',(1.,0.,0.));
#851=DIRECTION('center_axis',(0.,-1.,0.));
#852=DIRECTION('ref_axis',(1.,0.,1.91853618953808E-16));
#853=DIRECTION('',(0.,0.,1.));
#854=DIRECTION('',(1.,0.,7.63278329429795E-16));
#855=DIRECTION('',(0.,0.,1.));
#856=DIRECTION('',(-1.,0.,-7.16272919113004E-17));
#857=DIRECTION('',(0.,0.,-1.));
#858=DIRECTION('',(1.,0.,-7.63278329429795E-16));
#859=DIRECTION('',(0.,0.,-1.));
#860=DIRECTION('center_axis',(0.,1.,0.));
#861=DIRECTION('ref_axis',(1.,0.,0.));
#862=DIRECTION('',(0.,1.,0.));
#863=DIRECTION('center_axis',(0.,-1.,0.));
#864=DIRECTION('ref_axis',(1.,0.,0.));
#865=DIRECTION('',(0.,1.,0.));
#866=DIRECTION('center_axis',(-1.,0.,0.));
#867=DIRECTION('ref_axis',(0.,0.,1.));
#868=DIRECTION('',(0.,0.,1.));
#869=DIRECTION('',(0.,1.,0.));
#870=DIRECTION('center_axis',(0.,0.,1.));
#871=DIRECTION('ref_axis',(1.,0.,0.));
#872=DIRECTION('',(1.,0.,0.));
#873=DIRECTION('',(0.,1.,0.));
#874=DIRECTION('center_axis',(1.,0.,0.));
#875=DIRECTION('ref_axis',(0.,0.,-1.));
#876=DIRECTION('',(0.,0.,-1.));
#877=DIRECTION('',(0.,1.,0.));
#878=DIRECTION('center_axis',(0.,1.,0.));
#879=DIRECTION('ref_axis',(-1.,0.,1.22464679914735E-16));
#880=DIRECTION('center_axis',(0.,-1.,0.));
#881=DIRECTION('ref_axis',(1.,0.,0.));
#882=DIRECTION('',(0.,1.,0.));
#883=DIRECTION('center_axis',(1.,0.,0.));
#884=DIRECTION('ref_axis',(0.,0.,-1.));
#885=DIRECTION('',(0.,0.,-1.));
#886=DIRECTION('',(0.,1.,0.));
#887=DIRECTION('center_axis',(0.,0.,-1.));
#888=DIRECTION('ref_axis',(-1.,0.,0.));
#889=DIRECTION('',(-1.,0.,0.));
#890=DIRECTION('',(0.,1.,0.));
#891=DIRECTION('center_axis',(-1.,0.,0.));
#892=DIRECTION('ref_axis',(0.,0.,1.));
#893=DIRECTION('',(0.,0.,1.));
#894=DIRECTION('center_axis',(1.,0.,0.));
#895=DIRECTION('ref_axis',(0.,0.,-1.));
#896=DIRECTION('',(0.,-1.,0.));
#897=DIRECTION('',(0.,0.,-1.));
#898=DIRECTION('',(0.,1.,0.));
#899=DIRECTION('center_axis',(7.63278329429795E-16,0.,-1.));
#900=DIRECTION('ref_axis',(-1.,0.,-7.63278329429795E-16));
#901=DIRECTION('',(-1.,0.,-7.63278329429795E-16));
#902=DIRECTION('',(0.,1.,0.));
#903=DIRECTION('center_axis',(1.,0.,0.));
#904=DIRECTION('ref_axis',(0.,0.,-1.));
#905=DIRECTION('',(0.,0.,-1.));
#906=DIRECTION('',(0.,1.,0.));
#907=DIRECTION('center_axis',(-7.16272919113004E-17,0.,1.));
#908=DIRECTION('ref_axis',(1.,0.,7.16272919113004E-17));
#909=DIRECTION('',(1.,0.,7.16272919113004E-17));
#910=DIRECTION('',(0.,1.,0.));
#911=DIRECTION('center_axis',(-1.,0.,0.));
#912=DIRECTION('ref_axis',(0.,0.,1.));
#913=DIRECTION('',(0.,0.,1.));
#914=DIRECTION('',(0.,1.,0.));
#915=DIRECTION('center_axis',(-7.63278329429795E-16,0.,-1.));
#916=DIRECTION('ref_axis',(-1.,0.,7.63278329429795E-16));
#917=DIRECTION('',(-1.,0.,7.63278329429795E-16));
#918=DIRECTION('',(0.,1.,0.));
#919=DIRECTION('center_axis',(-1.,0.,0.));
#920=DIRECTION('ref_axis',(0.,0.,1.));
#921=DIRECTION('',(0.,0.,1.));
#922=DIRECTION('',(0.,1.,0.));
#923=DIRECTION('center_axis',(0.,1.,0.));
#924=DIRECTION('ref_axis',(1.,0.,1.91853618953808E-16));
#925=DIRECTION('center_axis',(0.,1.,0.));
#926=DIRECTION('ref_axis',(1.,0.,1.91853618953808E-16));
#927=DIRECTION('center_axis',(0.,1.,0.));
#928=DIRECTION('ref_axis',(1.,0.,0.));
#929=CARTESIAN_POINT('',(0.,0.,0.));
#930=CARTESIAN_POINT('Origin',(11.5,2.,4.99999999999998));
#931=CARTESIAN_POINT('',(13.25,2.,4.99999999999998));
#932=CARTESIAN_POINT('Origin',(11.5,2.,5.));
#933=CARTESIAN_POINT('',(13.25,2.,7.99999999999998));
#934=CARTESIAN_POINT('',(13.25,2.,4.99999999999998));
#935=CARTESIAN_POINT('Origin',(11.5,2.,7.99999999999998));
#936=CARTESIAN_POINT('Origin',(-11.5,11.,5.));
#937=CARTESIAN_POINT('',(-9.75,11.,5.));
#938=CARTESIAN_POINT('Origin',(-11.5,11.,5.));
#939=CARTESIAN_POINT('',(-9.75,11.,8.));
#940=CARTESIAN_POINT('',(-9.75,11.,5.));
#941=CARTESIAN_POINT('Origin',(-11.5,11.,8.));
#942=CARTESIAN_POINT('Origin',(11.5,11.,4.99999999999998));
#943=CARTESIAN_POINT('',(13.25,11.,4.99999999999998));
#944=CARTESIAN_POINT('Origin',(11.5,11.,5.));
#945=CARTESIAN_POINT('',(13.25,11.,7.99999999999998));
#946=CARTESIAN_POINT('',(13.25,11.,4.99999999999998));
#947=CARTESIAN_POINT('Origin',(11.5,11.,7.99999999999998));
#948=CARTESIAN_POINT('Origin',(-11.5,2.,5.));
#949=CARTESIAN_POINT('',(-9.75,2.,5.));
#950=CARTESIAN_POINT('Origin',(-11.5,2.,5.));
#951=CARTESIAN_POINT('',(-9.75,2.,8.));
#952=CARTESIAN_POINT('',(-9.75,2.,5.));
#953=CARTESIAN_POINT('Origin',(-11.5,2.,8.));
#954=CARTESIAN_POINT('Origin',(5.55111512312578E-16,0.,1.5));
#955=CARTESIAN_POINT('',(2.25,0.,2.34520787991171));
#956=CARTESIAN_POINT('',(2.25,0.,2.43301270189222));
#957=CARTESIAN_POINT('',(2.25,0.,4.));
#958=CARTESIAN_POINT('',(2.49263772219993,0.,2.08548727780007));
#959=CARTESIAN_POINT('Origin',(0.,0.,0.));
#960=CARTESIAN_POINT('Origin',(2.,0.,2.));
#961=CARTESIAN_POINT('Origin',(-2.5,0.,2.));
#962=CARTESIAN_POINT('',(-2.5,-2.,1.));
#963=CARTESIAN_POINT('',(-2.5,-2.,2.));
#964=CARTESIAN_POINT('',(-2.5,-2.,1.125));
#965=CARTESIAN_POINT('',(-2.5,0.,1.));
#966=CARTESIAN_POINT('',(-2.5,0.,1.));
#967=CARTESIAN_POINT('',(-2.5,0.,2.));
#968=CARTESIAN_POINT('',(-2.5,0.,1.125));
#969=CARTESIAN_POINT('',(-2.5,0.,2.));
#970=CARTESIAN_POINT('Origin',(-2.,0.,2.));
#971=CARTESIAN_POINT('',(-2.,-2.,2.5));
#972=CARTESIAN_POINT('Origin',(-2.,-2.,2.));
#973=CARTESIAN_POINT('',(-2.49263772219993,0.,2.08548727780007));
#974=CARTESIAN_POINT('Origin',(-2.,0.,2.));
#975=CARTESIAN_POINT('',(-2.25,0.,2.43301270189222));
#976=CARTESIAN_POINT('Origin',(-2.,0.,2.));
#977=CARTESIAN_POINT('',(-2.,0.,2.5));
#978=CARTESIAN_POINT('Origin',(-2.,0.,2.));
#979=CARTESIAN_POINT('',(-2.,0.,2.5));
#980=CARTESIAN_POINT('Origin',(2.,0.,2.5));
#981=CARTESIAN_POINT('',(2.,-2.,2.5));
#982=CARTESIAN_POINT('',(1.,-2.,2.5));
#983=CARTESIAN_POINT('',(2.,0.,2.5));
#984=CARTESIAN_POINT('',(1.,0.,2.5));
#985=CARTESIAN_POINT('',(2.,0.,2.5));
#986=CARTESIAN_POINT('Origin',(2.,0.,2.));
#987=CARTESIAN_POINT('',(2.5,-2.,2.));
#988=CARTESIAN_POINT('Origin',(2.,-2.,2.));
#989=CARTESIAN_POINT('Origin',(2.,0.,2.));
#990=CARTESIAN_POINT('',(2.5,0.,2.));
#991=CARTESIAN_POINT('Origin',(2.,0.,2.));
#992=CARTESIAN_POINT('',(2.5,0.,2.));
#993=CARTESIAN_POINT('Origin',(5.55111512312578E-16,0.,1.5));
#994=CARTESIAN_POINT('',(-2.25,0.,2.34520787991171));
#995=CARTESIAN_POINT('Origin',(0.,0.,0.));
#996=CARTESIAN_POINT('',(-2.25,0.,-4.));
#997=CARTESIAN_POINT('Origin',(2.5,0.,1.));
#998=CARTESIAN_POINT('',(2.5,-2.,1.));
#999=CARTESIAN_POINT('',(2.5,-2.,0.625000000000001));
#1000=CARTESIAN_POINT('',(2.5,0.,1.));
#1001=CARTESIAN_POINT('',(2.5,0.,0.625000000000001));
#1002=CARTESIAN_POINT('',(2.5,0.,1.));
#1003=CARTESIAN_POINT('Origin',(2.,0.,1.));
#1004=CARTESIAN_POINT('',(2.,-2.,0.500000000000001));
#1005=CARTESIAN_POINT('Origin',(2.,-2.,1.));
#1006=CARTESIAN_POINT('',(2.,0.,0.500000000000001));
#1007=CARTESIAN_POINT('Origin',(2.,0.,1.));
#1008=CARTESIAN_POINT('',(2.,0.,0.500000000000001));
#1009=CARTESIAN_POINT('Origin',(-2.,0.,0.500000000000001));
#1010=CARTESIAN_POINT('',(-2.,-2.,0.500000000000001));
#1011=CARTESIAN_POINT('',(-1.,-2.,0.500000000000001));
#1012=CARTESIAN_POINT('',(-2.,0.,0.500000000000001));
#1013=CARTESIAN_POINT('',(-1.,0.,0.500000000000001));
#1014=CARTESIAN_POINT('',(-2.,0.,0.500000000000001));
#1015=CARTESIAN_POINT('Origin',(-2.,0.,1.));
#1016=CARTESIAN_POINT('Origin',(-2.,-2.,1.));
#1017=CARTESIAN_POINT('Origin',(-2.,0.,1.));
#1018=CARTESIAN_POINT('Origin',(0.,0.,0.25));
#1019=CARTESIAN_POINT('',(-2.25,0.,4.));
#1020=CARTESIAN_POINT('',(-2.25,0.,-4.));
#1021=CARTESIAN_POINT('',(2.25,0.,4.));
#1022=CARTESIAN_POINT('',(-2.25,0.,4.));
#1023=CARTESIAN_POINT('',(2.25,0.,4.));
#1024=CARTESIAN_POINT('Origin',(0.,0.,0.25));
#1025=CARTESIAN_POINT('',(2.25,0.,-2.34520787991171));
#1026=CARTESIAN_POINT('Origin',(0.,0.,0.));
#1027=CARTESIAN_POINT('',(2.25,0.,-4.));
#1028=CARTESIAN_POINT('',(2.25,0.,4.));
#1029=CARTESIAN_POINT('',(-2.25,0.,-4.));
#1030=CARTESIAN_POINT('',(2.25,0.,-4.));
#1031=CARTESIAN_POINT('',(-2.25,0.,-2.34520787991172));
#1032=CARTESIAN_POINT('',(-2.25,0.,-4.));
#1033=CARTESIAN_POINT('Origin',(0.,0.,0.));
#1034=CARTESIAN_POINT('Origin',(0.,-2.,0.25));
#1035=CARTESIAN_POINT('',(-7.5,-2.,0.));
#1036=CARTESIAN_POINT('',(7.5,-2.,0.));
#1037=CARTESIAN_POINT('Origin',(0.,-2.,0.));
#1038=CARTESIAN_POINT('',(7.5,-2.,4.99999999999999));
#1039=CARTESIAN_POINT('',(7.5,-2.,0.));
#1040=CARTESIAN_POINT('',(15.5,-2.,5.));
#1041=CARTESIAN_POINT('',(7.5,-2.,4.99999999999999));
#1042=CARTESIAN_POINT('',(15.5,-2.,8.));
#1043=CARTESIAN_POINT('',(15.5,-2.,5.));
#1044=CARTESIAN_POINT('',(-15.5,-2.,8.));
#1045=CARTESIAN_POINT('',(-15.5,-2.,8.));
#1046=CARTESIAN_POINT('',(-15.5,-2.,5.));
#1047=CARTESIAN_POINT('',(-15.5,-2.,5.));
#1048=CARTESIAN_POINT('',(-7.5,-2.,4.99999999999999));
#1049=CARTESIAN_POINT('',(-7.5,-2.,4.99999999999999));
#1050=CARTESIAN_POINT('',(-7.5,-2.,0.));
#1051=CARTESIAN_POINT('Origin',(0.,0.,0.));
#1052=CARTESIAN_POINT('',(2.25,15.,2.34520787991171));
#1053=CARTESIAN_POINT('',(2.25,0.,2.34520787991171));
#1054=CARTESIAN_POINT('',(2.25,15.,-2.34520787991171));
#1055=CARTESIAN_POINT('Origin',(0.,15.,0.));
#1056=CARTESIAN_POINT('',(2.25,0.,-2.34520787991171));
#1057=CARTESIAN_POINT('Origin',(2.25,0.,-4.));
#1058=CARTESIAN_POINT('',(2.25,15.,-4.));
#1059=CARTESIAN_POINT('',(2.25,15.,4.));
#1060=CARTESIAN_POINT('',(2.25,0.,-4.));
#1061=CARTESIAN_POINT('Origin',(-2.25,0.,-4.));
#1062=CARTESIAN_POINT('',(-2.25,15.,-4.));
#1063=CARTESIAN_POINT('',(2.25,15.,-4.));
#1064=CARTESIAN_POINT('',(-2.25,0.,-4.));
#1065=CARTESIAN_POINT('Origin',(-2.25,0.,-2.34520787991172));
#1066=CARTESIAN_POINT('',(-2.25,15.,-2.34520787991172));
#1067=CARTESIAN_POINT('',(-2.25,15.,-4.));
#1068=CARTESIAN_POINT('',(-2.25,0.,-2.34520787991172));
#1069=CARTESIAN_POINT('Origin',(0.,0.,0.));
#1070=CARTESIAN_POINT('',(-2.25,15.,2.34520787991171));
#1071=CARTESIAN_POINT('Origin',(0.,15.,0.));
#1072=CARTESIAN_POINT('',(-2.25,0.,2.34520787991171));
#1073=CARTESIAN_POINT('Origin',(-2.25,0.,4.));
#1074=CARTESIAN_POINT('',(-2.25,15.,4.));
#1075=CARTESIAN_POINT('',(-2.25,15.,-4.));
#1076=CARTESIAN_POINT('',(-2.25,0.,4.));
#1077=CARTESIAN_POINT('Origin',(2.25,0.,4.));
#1078=CARTESIAN_POINT('',(2.25,15.,4.));
#1079=CARTESIAN_POINT('',(-2.25,15.,4.));
#1080=CARTESIAN_POINT('',(2.25,0.,4.));
#1081=CARTESIAN_POINT('Origin',(2.25,0.,2.34520787991171));
#1082=CARTESIAN_POINT('',(2.25,15.,4.));
#1083=CARTESIAN_POINT('Origin',(7.5,0.,4.99999999999999));
#1084=CARTESIAN_POINT('',(7.5,15.,0.));
#1085=CARTESIAN_POINT('',(7.5,0.,0.));
#1086=CARTESIAN_POINT('',(7.5,15.,4.99999999999999));
#1087=CARTESIAN_POINT('',(7.5,15.,0.));
#1088=CARTESIAN_POINT('',(7.5,0.,4.99999999999999));
#1089=CARTESIAN_POINT('Origin',(15.5,0.,5.));
#1090=CARTESIAN_POINT('',(15.5,15.,5.));
#1091=CARTESIAN_POINT('',(7.5,15.,4.99999999999999));
#1092=CARTESIAN_POINT('',(15.5,0.,5.));
#1093=CARTESIAN_POINT('Origin',(15.5,0.,8.));
#1094=CARTESIAN_POINT('',(15.5,15.,8.));
#1095=CARTESIAN_POINT('',(15.5,15.,5.));
#1096=CARTESIAN_POINT('',(15.5,0.,8.));
#1097=CARTESIAN_POINT('Origin',(-15.5,0.,8.));
#1098=CARTESIAN_POINT('',(-15.5,15.,8.));
#1099=CARTESIAN_POINT('',(-15.5,15.,8.));
#1100=CARTESIAN_POINT('',(-15.5,0.,8.));
#1101=CARTESIAN_POINT('Origin',(-15.5,0.,5.));
#1102=CARTESIAN_POINT('',(-15.5,15.,5.));
#1103=CARTESIAN_POINT('',(-15.5,15.,5.));
#1104=CARTESIAN_POINT('',(-15.5,0.,5.));
#1105=CARTESIAN_POINT('Origin',(-7.5,0.,4.99999999999999));
#1106=CARTESIAN_POINT('',(-7.5,15.,4.99999999999999));
#1107=CARTESIAN_POINT('',(-7.5,15.,4.99999999999999));
#1108=CARTESIAN_POINT('',(-7.5,0.,4.99999999999999));
#1109=CARTESIAN_POINT('Origin',(-7.5,0.,0.));
#1110=CARTESIAN_POINT('',(-7.5,15.,0.));
#1111=CARTESIAN_POINT('',(-7.5,15.,0.));
#1112=CARTESIAN_POINT('',(-7.5,0.,0.));
#1113=CARTESIAN_POINT('Origin',(0.,0.,0.));
#1114=CARTESIAN_POINT('Origin',(0.,15.,0.));
#1115=CARTESIAN_POINT('Origin',(0.,15.,0.25));
#1116=UNCERTAINTY_MEASURE_WITH_UNIT(LENGTH_MEASURE(0.01),#1120,
'DISTANCE_ACCURACY_VALUE',
'Maximum model space distance between geometric entities at asserted c
onnectivities');
#1117=UNCERTAINTY_MEASURE_WITH_UNIT(LENGTH_MEASURE(0.01),#1120,
'DISTANCE_ACCURACY_VALUE',
'Maximum model space distance between geometric entities at asserted c
onnectivities');
#1118=(
GEOMETRIC_REPRESENTATION_CONTEXT(3)
GLOBAL_UNCERTAINTY_ASSIGNED_CONTEXT((#1116))
GLOBAL_UNIT_ASSIGNED_CONTEXT((#1120,#1122,#1123))
REPRESENTATION_CONTEXT('','3D')
);
#1119=(
GEOMETRIC_REPRESENTATION_CONTEXT(3)
GLOBAL_UNCERTAINTY_ASSIGNED_CONTEXT((#1117))
GLOBAL_UNIT_ASSIGNED_CONTEXT((#1120,#1122,#1123))
REPRESENTATION_CONTEXT('','3D')
);
#1120=(
LENGTH_UNIT()
NAMED_UNIT(*)
SI_UNIT(.MILLI.,.METRE.)
);
#1121=(
LENGTH_UNIT()
NAMED_UNIT(*)
SI_UNIT($,.METRE.)
);
#1122=(
NAMED_UNIT(*)
PLANE_ANGLE_UNIT()
SI_UNIT($,.RADIAN.)
);
#1123=(
NAMED_UNIT(*)
SI_UNIT($,.STERADIAN.)
SOLID_ANGLE_UNIT()
);
#1124=SHAPE_DEFINITION_REPRESENTATION(#1125,#1126);
#1125=PRODUCT_DEFINITION_SHAPE('',$,#1128);
#1126=SHAPE_REPRESENTATION('',(#676),#1118);
#1127=PRODUCT_DEFINITION_CONTEXT('part definition',#1132,'design');
#1128=PRODUCT_DEFINITION('LaserHeader_Horiozntal_Inflate',
'LaserHeader_Horiozntal_Inflate v5',#1129,#1127);
#1129=PRODUCT_DEFINITION_FORMATION('',$,#1134);
#1130=PRODUCT_RELATED_PRODUCT_CATEGORY(
'LaserHeader_Horiozntal_Inflate v5','LaserHeader_Horiozntal_Inflate v5',
(#1134));
#1131=APPLICATION_PROTOCOL_DEFINITION('international standard',
'automotive_design',2009,#1132);
#1132=APPLICATION_CONTEXT(
'Core Data for Automotive Mechanical Design Process');
#1133=PRODUCT_CONTEXT('part definition',#1132,'mechanical');
#1134=PRODUCT('LaserHeader_Horiozntal_Inflate',
'LaserHeader_Horiozntal_Inflate v5',$,(#1133));
#1135=PRESENTATION_STYLE_ASSIGNMENT((#1136));
#1136=SURFACE_STYLE_USAGE(.BOTH.,#1137);
#1137=SURFACE_SIDE_STYLE('',(#1138));
#1138=SURFACE_STYLE_FILL_AREA(#1139);
#1139=FILL_AREA_STYLE('Steel - Satin',(#1140));
#1140=FILL_AREA_STYLE_COLOUR('Steel - Satin',#1141);
#1141=COLOUR_RGB('Steel - Satin',0.627450980392157,0.627450980392157,0.627450980392157);
ENDSEC;
END-ISO-10303-21;
